<svg width="50" height="50" viewBox="0 0 50 50" fill="none" xmlns="http://www.w3.org/2000/svg">
<path d="M24.3664 29.9595C17.847 29.6449 12.7224 24.2505 12.7224 17.7024C12.7224 11.1544 17.847 5.75993 24.3664 5.44534V0C11.2026 0.303644 0 11.3765 0 25C0 38.6235 11.2026 49.6964 24.3664 50V29.9595Z" fill="#293B61"/>
<path d="M25.8281 0V5.46559C31.6796 5.87045 37.3011 11.1903 37.3011 17.7085C37.3011 24.2267 31.6796 29.5547 25.8281 29.9595V49.996C38.9919 49.5911 50.0008 38.5587 50.0008 25C50.0008 11.4413 38.9919 0.404858 25.8281 0Z" fill="#293B61"/>
<path d="M24.8388 26.1416C27.179 26.1416 29.0761 24.2383 29.0761 21.8905C29.0761 19.5428 27.179 17.6395 24.8388 17.6395C22.4987 17.6395 20.6016 19.5428 20.6016 21.8905C20.6016 24.2383 22.4987 26.1416 24.8388 26.1416Z" fill="#293B61"/>
</svg>
