<svg width="218" height="40" viewBox="0 0 218 40" fill="none" xmlns="http://www.w3.org/2000/svg">
<path d="M19.1284 23.7743C14.0105 23.5247 9.98751 19.2439 9.98751 14.0477C9.98751 8.85155 14.0105 4.57079 19.1284 4.32114V0C8.79438 0.240956 0 9.02782 0 19.8387C0 30.6496 8.79438 39.4365 19.1284 39.6774V23.7743Z" fill="#293B61"/>
<path d="M20.2734 0V4.33721C24.867 4.65848 29.2801 8.88003 29.2801 14.0526C29.2801 19.2251 24.867 23.4531 20.2734 23.7743V39.6742C30.6075 39.3529 39.2498 30.5982 39.2498 19.8387C39.2498 9.07922 30.6075 0.321275 20.2734 0Z" fill="#293B61"/>
<path d="M19.4983 20.7448C21.3354 20.7448 22.8247 19.2345 22.8247 17.3714C22.8247 15.5084 21.3354 13.998 19.4983 13.998C17.6612 13.998 16.1719 15.5084 16.1719 17.3714C16.1719 19.2345 17.6612 20.7448 19.4983 20.7448Z" fill="#293B61"/>
<path d="M54.6884 29.8896C46.4559 29.8896 44.6055 24.838 44.6055 19.3541C44.6055 14.1089 46.654 9.06055 54.6469 9.06055C61.697 9.06055 63.7839 13.5509 63.7839 19.196C63.7839 19.7509 63.7839 20.1638 63.7455 20.7057H47.7151C47.9132 24.7218 49.7253 27.5444 54.6085 27.5444C58.8239 27.5444 60.3611 25.438 60.7127 23.2896H63.7839C63.4707 26.7896 61.1473 29.8896 54.6884 29.8896ZM54.4104 11.4444C49.297 11.4444 47.8333 14.6702 47.7151 18.3218H60.7222C60.7222 14.4251 58.9805 11.4444 54.4104 11.4444Z" fill="#293B61"/>
<path d="M81.9755 29.6509V18.5605C81.9755 14.1928 81.1477 11.6122 75.9896 11.6122C70.8315 11.6122 69.6874 14.1186 69.6874 18.5702V29.6509H66.7344V9.29603H68.115L68.9811 12.9928C69.7673 10.8864 71.9341 9.06055 76.779 9.06055C83.6309 9.06055 84.9285 12.9315 84.9285 18.7993V29.6509H81.9755Z" fill="#293B61"/>
<path d="M97.2999 38.2394C89.3838 38.2394 87.2969 35.2555 87.2969 30.6459H90.2882C90.2882 33.7459 91.5506 35.8071 97.2999 35.8071C102.813 35.8071 103.954 34.0588 103.954 32.4684C103.954 27.5781 87.6101 30.4394 87.6101 24.8749C87.6101 23.4459 88.7925 22.5297 90.8411 22.0523C88.6743 20.82 88.0064 18.6749 88.0064 16.5265C88.0064 12.3523 89.7769 9.29102 97.4565 9.29102H106.239V10.8039L102.909 11.3652C104.877 12.12 105.862 13.9459 105.862 16.5749C105.862 20.8684 104.206 23.9265 96.9132 23.9265C95.1012 23.9265 93.7621 23.8071 92.8161 23.4523C90.9657 23.6491 90.611 24.2459 90.611 24.7233C90.611 27.8233 107.035 25.1201 107.035 32.3555C107.028 35.2168 104.861 38.2394 97.2999 38.2394ZM96.9068 11.7233C92.1802 11.7233 91.0392 13.591 91.0392 16.4942C91.0392 19.4749 92.0236 21.6555 96.9452 21.6555C101.672 21.6555 102.774 19.5071 102.774 16.4942C102.774 13.7104 101.828 11.7233 96.9068 11.7233Z" fill="#293B61"/>
<path d="M117.853 29.8896C109.617 29.8896 107.773 24.838 107.773 19.3541C107.773 14.1089 109.822 9.06055 117.815 9.06055C124.865 9.06055 126.952 13.5509 126.952 19.196C126.952 19.7509 126.952 20.1638 126.913 20.7057H110.896C111.094 24.7218 112.906 27.5444 117.789 27.5444C122.001 27.5444 123.542 25.438 123.893 23.2896H126.965C126.635 26.7896 124.318 29.8896 117.853 29.8896ZM117.578 11.4444C112.465 11.4444 111.001 14.6702 110.867 18.3218H123.865C123.881 14.4251 122.148 11.4444 117.578 11.4444Z" fill="#293B61"/>
<path d="M145.147 29.6509V18.5605C145.147 14.1928 144.32 11.6122 139.161 11.6122C134.003 11.6122 132.859 14.1186 132.859 18.5702V29.6509H129.906V9.29603H131.284L132.15 12.9928C132.939 10.8864 135.106 9.06055 139.948 9.06055C146.803 9.06055 148.1 12.9315 148.1 18.7993V29.6509H145.147Z" fill="#293B61"/>
<path d="M160.899 29.8896C152.67 29.8896 150.816 24.838 150.816 19.3541C150.816 14.1089 152.865 9.06055 160.861 9.06055C167.911 9.06055 169.998 13.5509 169.998 19.196C169.998 19.7509 169.998 20.1638 169.956 20.7057H153.929C154.127 24.7218 155.936 27.5444 160.823 27.5444C165.035 27.5444 166.575 25.438 166.927 23.2896H169.998C169.682 26.7896 167.358 29.8896 160.899 29.8896ZM160.625 11.4444C155.511 11.4444 154.047 14.6702 153.913 18.3218H166.911C166.927 14.4251 165.191 11.4444 160.625 11.4444Z" fill="#293B61"/>
<path d="M181.459 29.8902C174.802 29.8902 171.807 27.2257 171.925 22.0579H174.802C174.763 25.516 176.719 27.4644 181.417 27.4644C185.709 27.4644 187.128 25.7966 187.17 24.2386C187.368 18.9515 172.401 22.1321 172.325 14.9353C172.245 11.4773 174.766 9.05469 180.909 9.05469C187.301 9.05469 189.573 12.1128 189.573 16.5676H186.815C186.738 13.3869 185.217 11.4386 180.829 11.4386C176.575 11.4386 175.198 12.9095 175.278 14.7773C175.358 19.4289 190.084 16.6869 190.084 24.0805C190.081 26.9869 187.681 29.8902 181.459 29.8902Z" fill="#293B61"/>
<path d="M194.608 6.75412C193.231 6.75412 192.371 6.35735 192.371 4.92509C192.371 3.41541 193.237 3.13477 194.608 3.13477C195.909 3.13477 196.775 3.41541 196.775 4.92509C196.775 6.35735 195.906 6.75412 194.608 6.75412ZM193.113 29.6573V9.29606H196.027V29.6509L193.113 29.6573Z" fill="#293B61"/>
<path d="M208.475 29.8902C201.818 29.8902 198.827 27.2257 198.945 22.0579H201.821C201.783 25.516 203.739 27.4644 208.437 27.4644C212.732 27.4644 214.148 25.7966 214.189 24.2386C214.384 18.9515 199.418 22.1321 199.341 14.9353C199.261 11.4773 201.783 9.05469 207.925 9.05469C214.317 9.05469 216.589 12.1128 216.589 16.5676H213.834C213.754 13.3869 212.217 11.4386 207.848 11.4386C203.579 11.445 202.211 12.9031 202.3 14.7837C202.38 19.4353 217.107 16.6934 217.107 24.0869C217.097 26.9869 214.697 29.8902 208.475 29.8902Z" fill="#293B61"/>
</svg>
