<svg width="50" height="50" viewBox="0 0 50 50" fill="none" xmlns="http://www.w3.org/2000/svg">
<path d="M50 24.2024C49.9997 28.9168 48.7477 33.541 46.3799 37.5727C44.012 41.6045 40.619 44.8896 36.5692 47.0713C32.5194 49.253 27.9677 50.2478 23.4086 49.9477C18.8495 49.6476 14.4572 48.064 10.7088 45.369C6.96047 42.6741 3.99935 38.9707 2.14709 34.6612C0.294832 30.3516 -0.377738 25.6007 0.202434 20.9245C0.782605 16.2483 2.59334 11.8255 5.43795 8.13652C8.28256 4.44757 12.0523 1.63351 16.3377 0L20.2769 11.0063C17.2724 12.1503 14.7537 14.3486 13.1616 17.2161C11.5696 20.0837 11.0057 23.4378 11.5688 26.6912C12.1319 29.9445 13.786 32.8898 16.2415 35.0114C18.6971 37.1329 21.7975 38.2954 25 38.2954C28.2025 38.2954 31.303 37.1329 33.7585 35.0114C36.214 32.8898 37.8681 29.9445 38.4312 26.6912C38.9943 23.4378 38.4304 20.0837 36.8384 17.2161C35.2463 14.3486 32.7276 12.1503 29.7231 11.0063L33.6739 0C38.4656 1.82928 42.5991 5.12964 45.5181 9.45677C48.437 13.7839 50.0012 18.93 50 24.2024Z" fill="#304778"/>
<path d="M36.7445 24.2022C36.7407 26.7801 35.9402 29.2896 34.4593 31.3658C32.9783 33.4419 30.8943 34.9764 28.5101 35.7461C26.126 36.5158 23.566 36.4806 21.2026 35.6456C18.8392 34.8106 16.7955 33.2193 15.3687 31.1032C13.9419 28.9871 13.2065 26.4564 13.2693 23.8793C13.3322 21.3022 14.19 18.8129 15.7181 16.7735C17.2462 14.7341 19.3648 13.2509 21.766 12.5396C24.1671 11.8283 26.7255 11.926 29.0691 12.8185C31.3233 13.6778 33.2678 15.23 34.6403 17.2656C36.0128 19.3012 36.7472 21.7223 36.7445 24.2022Z" fill="#CA513C"/>
</svg>
