<svg width="30" height="30" viewBox="0 0 30 30" fill="none" xmlns="http://www.w3.org/2000/svg">
<path fill-rule="evenodd" clip-rule="evenodd" d="M15 30C23.2843 30 30 23.2843 30 15C30 6.71573 23.2843 0 15 0C6.71573 0 0 6.71573 0 15C0 23.2843 6.71573 30 15 30Z" fill="#959AA4"/>
<path fill-rule="evenodd" clip-rule="evenodd" d="M15 29.25C22.8701 29.25 29.25 22.8701 29.25 15C29.25 7.12994 22.8701 0.75 15 0.75C7.12994 0.75 0.75 7.12994 0.75 15C0.75 22.8701 7.12994 29.25 15 29.25ZM30 15C30 23.2843 23.2843 30 15 30C6.71573 30 0 23.2843 0 15C0 6.71573 6.71573 0 15 0C23.2843 0 30 6.71573 30 15Z" fill="#FAFAFD"/>
<path d="M20.884 18.564C20.481 17.757 19.1048 17.2514 17.2005 16.5509C16.8382 16.4186 16.6098 16.3637 16.5077 16.069C16.3903 15.782 16.4222 15.4556 16.5928 15.1967C17.3476 14.3809 17.7181 13.159 17.7181 11.5813C17.7181 9.49523 16.2909 8.56201 14.8746 8.56201C13.4583 8.56201 12.031 9.49523 12.031 11.5813C12.031 13.159 12.4015 14.3809 13.1563 15.1967C13.3269 15.4556 13.3588 15.782 13.2414 16.069C13.1393 16.3637 12.912 16.4186 12.5486 16.5509C10.6443 17.2514 9.26809 17.7586 8.86516 18.564C8.50951 19.2978 8.31255 20.0984 8.28711 20.9135C8.28711 21.0651 8.41 21.188 8.56159 21.188H21.1875C21.3391 21.188 21.462 21.0651 21.462 20.9135C21.4366 20.0984 21.2396 19.2978 20.884 18.564Z" fill="#FAFAFD"/>
<mask id="mask0_2180_15073" style="mask-type:alpha" maskUnits="userSpaceOnUse" x="8" y="8" width="14" height="14">
<path d="M20.884 18.564C20.481 17.757 19.1048 17.2514 17.2005 16.5509C16.8382 16.4186 16.6098 16.3637 16.5077 16.069C16.3903 15.782 16.4222 15.4556 16.5928 15.1967C17.3476 14.3809 17.7181 13.159 17.7181 11.5813C17.7181 9.49523 16.2909 8.56201 14.8746 8.56201C13.4583 8.56201 12.031 9.49523 12.031 11.5813C12.031 13.159 12.4015 14.3809 13.1563 15.1967C13.3269 15.4556 13.3588 15.782 13.2414 16.069C13.1393 16.3637 12.912 16.4186 12.5486 16.5509C10.6443 17.2514 9.26809 17.7586 8.86516 18.564C8.50951 19.2978 8.31255 20.0984 8.28711 20.9135C8.28711 21.0651 8.41 21.188 8.56159 21.188H21.1875C21.3391 21.188 21.462 21.0651 21.462 20.9135C21.4366 20.0984 21.2396 19.2978 20.884 18.564Z" fill="white"/>
</mask>
<g mask="url(#mask0_2180_15073)">
</g>
</svg>
