<svg width="14" height="14" viewBox="0 0 14 14" fill="none" xmlns="http://www.w3.org/2000/svg">
<path fill-rule="evenodd" clip-rule="evenodd" d="M13.48 7.15363C13.48 6.67499 13.437 6.21477 13.3573 5.77295H7V8.38397H10.6327C10.4763 9.22772 10.0007 9.94261 9.2858 10.4212V12.1149H11.4673C12.7436 10.9398 13.48 9.20931 13.48 7.15363Z" fill="#4285F4"/>
<path fill-rule="evenodd" clip-rule="evenodd" d="M7.0008 13.75C8.8233 13.75 10.3513 13.1455 11.4681 12.1146L9.28659 10.421C8.68216 10.826 7.90898 11.0653 7.0008 11.0653C5.24273 11.0653 3.75466 9.87793 3.22386 8.28247H0.96875V10.0313C2.07943 12.2374 4.36216 13.75 7.0008 13.75Z" fill="#34A853"/>
<path fill-rule="evenodd" clip-rule="evenodd" d="M3.22307 8.28237C3.08807 7.87737 3.01136 7.44476 3.01136 6.99987C3.01136 6.55498 3.08807 6.12237 3.22307 5.71737V3.96851H0.967955C0.510795 4.87976 0.25 5.91066 0.25 6.99987C0.25 8.08907 0.510795 9.11998 0.967955 10.0312L3.22307 8.28237Z" fill="#FBBC05"/>
<path fill-rule="evenodd" clip-rule="evenodd" d="M7.0008 2.93466C7.99182 2.93466 8.88159 3.27523 9.58114 3.94409L11.5172 2.00807C10.3482 0.918864 8.82023 0.25 7.0008 0.25C4.36216 0.25 2.07943 1.76261 0.96875 3.96864L3.22386 5.7175C3.75466 4.12205 5.24273 2.93466 7.0008 2.93466Z" fill="#EA4335"/>
</svg>
