<svg width="30" height="30" viewBox="0 0 30 30" fill="none" xmlns="http://www.w3.org/2000/svg">
<path d="M28.9294 4.28613H1.07227L15.0008 15.759L29.0869 4.31828C29.0353 4.30321 28.9827 4.29247 28.9294 4.28613Z" fill="#293B61"/>
<path d="M15.676 17.9742C15.2813 18.2974 14.7133 18.2974 14.3186 17.9742L0 6.17773V24.6427C0 25.2345 0.479694 25.7142 1.07145 25.7142H28.9285C29.5203 25.7142 30 25.2345 30 24.6427V6.33631L15.676 17.9742Z" fill="#293B61"/>
</svg>
