<svg width="31" height="30" viewBox="0 0 31 30" fill="none" xmlns="http://www.w3.org/2000/svg">
<g clip-path="url(#clip0_1910_35046)">
<path d="M27.3908 4.85777L15.9064 0.0895825C15.6187 -0.0298315 15.2953 -0.0298901 15.0077 0.0895825L3.5233 4.85777C3.0859 5.03941 2.80078 5.46644 2.80078 5.94005V11.7364C2.80078 19.7177 7.62475 26.897 15.0142 29.9131C15.298 30.0289 15.616 30.0289 15.8999 29.9131C23.2892 26.897 28.1133 19.7177 28.1133 11.7364V5.94005C28.1133 5.46644 27.8282 5.03941 27.3908 4.85777ZM25.7695 11.7364C25.7695 18.5213 21.7852 24.7672 15.457 27.5552C9.29801 24.8417 5.14453 18.7052 5.14453 11.7364V6.72239L15.457 2.44072L25.7695 6.72239V11.7364ZM14.1618 15.6865L19.1987 10.6496C19.6563 10.192 20.3983 10.1919 20.856 10.6496C21.3137 11.1073 21.3136 11.8492 20.8559 12.3068L14.9904 18.1724C14.5327 18.6301 13.7907 18.6299 13.3331 18.1724L10.0581 14.8973C9.60041 14.4397 9.60041 13.6977 10.0581 13.2401C10.5158 12.7825 11.2577 12.7824 11.7154 13.2401L14.1618 15.6865Z" fill="#1E3956"/>
</g>
<defs>
<clipPath id="clip0_1910_35046">
<rect width="30" height="30" fill="white" transform="translate(0.457031)"/>
</clipPath>
</defs>
</svg>
