{
    "openapi": "3.0.0",
    "info": {
        "title": "Flitt Api Documention",
        "description": "Documentation for Flitt app",
        "license": {
            "name": "Apache 2.0",
            "url": "http://www.apache.org/licenses/LICENSE-2.0.html"
        },
        "version": "0.1"
    },
    "servers": [
        {
            "url": "http://127.0.0.1:8008/api/v1",
            "description": "Serveur"
        }
    ],
    "paths": {
        "/user/auth/register": {
            "post": {
                "tags": [
                    "1- User|1- Auth|1- Register"
                ],
                "summary": "register users",
                "operationId": "b29d737aa6381b0d22aacd4fbcc53175",
                "requestBody": {
                    "description": "order placed for purchasing th pet",
                    "required": true,
                    "content": {
                        "application/x-www-form-urlencoded": {
                            "schema": {
                                "properties": {
                                    "first_name": {
                                        "description": "type your first name",
                                        "type": "string",
                                        "default": "your first name"
                                    },
                                    "last_name": {
                                        "description": "type your last name",
                                        "type": "string"
                                    }
                                },
                                "type": "object"
                            }
                        }
                    }
                },
                "responses": {
                    "200": {
                        "description": "successful operation",
                        "content": {
                            "application/json": {
                                "schema": {}
                            }
                        }
                    }
                },
                "security": [
                    {
                        "bearer": []
                    }
                ]
            }
        }
    },
    "components": {
        "securitySchemes": {
            "bearer": {
                "type": "apiKey",
                "description": "Enter token in format (Bearer <token>)",
                "name": "Authorization",
                "in": "header",
                "scheme": "bearer"
            }
        }
    },
    "security": [
        []
    ]
}